{
  "project_info": {
    "project_number": "879463035201",
    "project_id": "accounts-book-16d2b",
    "storage_bucket": "accounts-book-16d2b.appspot.com"
  },
  "client": [
    {
      "client_info": {
        "mobilesdk_app_id": "1:879463035201:android:0e86f7bb188582b29631c0",
        "android_client_info": {
          "package_name": "in.cyenosure.accounts_book_premium"
        }
      },
      "oauth_client": [],
      "api_key": [
        {
          "current_key": "AIzaSyDSaXIUGuyS1JCIcHNVPkGyh181J-vXiik"
        }
      ],
      "services": {
        "appinvite_service": {
          "other_platform_oauth_client": []
        }
      }
    }
  ],
  "configuration_version": "1"
}